{
    "_links": {
        "next": "/api/operations?per_page=5&page=2",
        "prev": null,
        "self": "/api/operations?per_page=5&page=1"
    },
    "_meta": {
        "page": 1,
        "per_page": 5,
        "total_items": 7,
        "total_pages": 2
    },
    "items": [
        {
            "_links": {
                "anaesthetic": "/api/anaesthetics/1",
                "operative_record": "/api/operative-records/1",
                "patient": "/api/patients/1",
                "post_operative_record": "/api/post-operative-records/1",
                "pre_operative_record": "/api/preoperative-records/1",
                "reference": "/api/referals/1",
                "self": "/api/operations/1",
                "surgical_team": "/api/operations/1/surgical-team",
                "theater": "/api/theaters/32232",
                "vitals": "/api/operations/1/vitals"
            },
            "anaesthetic": {
                "drug_id": null,
                "end_time": "None",
                "id": 1,
                "start_time": "12:56:00",
                "technique_id": null
            },
            "date": null,
            "end_time": "12:56:00",
            "id": 1,
            "operative_record": {
                "abnormal_reactions": "abnornal reactions",
                "blood_pressure": "blood pressusure",
                "color": "colour",
                "id": 1,
                "iv_therapy": "IV Therapy",
                "posture": "posture",
                "pulse_rate": null,
                "reflexes": "relexes",
                "skin": "skin"
            },
            "patient": {
                "address": "Elmore",
                "first_names": "john",
                "gender": "m",
                "id": 1,
                "national_id": "elmc-12",
                "phone": "01234567889",
                "surname": "doe"
            },
            "post_operative_record": {
                "complications": "complications",
                "id": 1,
                "instructions_to_ward": "instructions to ward",
                "iv_therapy": "IV Therapy",
                "sedation": "sedation"
            },
            "pre_operative_record": {
                "blood_group": "blood group",
                "blood_pressure": "blood pressure",
                "blood_urea": null,
                "cadiovascular_system": "cadiovascular system",
                "drug_therapy": "drug therapy",
                "haemoglobin": null,
                "id": 1,
                "mass": "46",
                "pulse": "pulse",
                "respiration": "respiration",
                "respiratory_system": "respiratory system",
                "temperature": "78",
                "urine": "urine"
            },
            "reference": {
                "id": 1,
                "note": "note",
                "patient_id": "patient id",
                "referer_id": "refereer id"
            },
            "start_time": "12:56:00"
        },
        {
            "_links": {
                "anaesthetic": "/api/anaesthetics/2",
                "operative_record": "/api/operative-records/2",
                "patient": "/api/patients/2",
                "post_operative_record": "/api/post-operative-records/2",
                "pre_operative_record": "/api/preoperative-records/2",
                "reference": "/api/referals/2",
                "self": "/api/operations/2",
                "surgical_team": "/api/operations/2/surgical-team",
                "theater": "/api/theaters/32232",
                "vitals": "/api/operations/2/vitals"
            },
            "anaesthetic": {
                "drug_id": null,
                "end_time": "None",
                "id": 2,
                "start_time": "12:56:00",
                "technique_id": null
            },
            "date": null,
            "end_time": "12:56:00",
            "id": 2,
            "operative_record": {
                "abnormal_reactions": "abnornal reactions",
                "blood_pressure": "blood pressusure",
                "color": "colour",
                "id": 2,
                "iv_therapy": "IV Therapy",
                "posture": "posture",
                "pulse_rate": null,
                "reflexes": "relexes",
                "skin": "skin"
            },
            "patient": {
                "address": "Elmore",
                "first_names": "john",
                "gender": "m",
                "id": 2,
                "national_id": "elmc-127",
                "phone": "01234567889",
                "surname": "doe"
            },
            "post_operative_record": {
                "complications": "complications",
                "id": 2,
                "instructions_to_ward": "instructions to ward",
                "iv_therapy": "IV Therapy",
                "sedation": "sedation"
            },
            "pre_operative_record": {
                "blood_group": "blood group",
                "blood_pressure": "blood pressure",
                "blood_urea": null,
                "cadiovascular_system": "cadiovascular system",
                "drug_therapy": "drug therapy",
                "haemoglobin": null,
                "id": 2,
                "mass": "46",
                "pulse": "pulse",
                "respiration": "respiration",
                "respiratory_system": "respiratory system",
                "temperature": "78",
                "urine": "urine"
            },
            "reference": {
                "id": 2,
                "note": "note",
                "patient_id": "patient id",
                "referer_id": "refereer id"
            },
            "start_time": "12:56:00"
        },
        {
            "_links": {
                "anaesthetic": "/api/anaesthetics/3",
                "operative_record": "/api/operative-records/3",
                "patient": "/api/patients/3",
                "post_operative_record": "/api/post-operative-records/3",
                "pre_operative_record": "/api/preoperative-records/3",
                "reference": "/api/referals/3",
                "self": "/api/operations/3",
                "surgical_team": "/api/operations/3/surgical-team",
                "theater": "/api/theaters/32232",
                "vitals": "/api/operations/3/vitals"
            },
            "anaesthetic": {
                "drug_id": null,
                "end_time": "None",
                "id": 3,
                "start_time": "12:56:00",
                "technique_id": null
            },
            "date": null,
            "end_time": "12:56:00",
            "id": 3,
            "operative_record": {
                "abnormal_reactions": "abnornal reactions",
                "blood_pressure": "blood pressusure",
                "color": "colour",
                "id": 3,
                "iv_therapy": "IV Therapy",
                "posture": "posture",
                "pulse_rate": null,
                "reflexes": "relexes",
                "skin": "skin"
            },
            "patient": {
                "address": "Elmore",
                "first_names": "john",
                "gender": "m",
                "id": 3,
                "national_id": "elmc-1278",
                "phone": "01234567889",
                "surname": "doe"
            },
            "post_operative_record": {
                "complications": "complications",
                "id": 3,
                "instructions_to_ward": "instructions to ward",
                "iv_therapy": "IV Therapy",
                "sedation": "sedation"
            },
            "pre_operative_record": {
                "blood_group": "blood group",
                "blood_pressure": "blood pressure",
                "blood_urea": null,
                "cadiovascular_system": "cadiovascular system",
                "drug_therapy": "drug therapy",
                "haemoglobin": null,
                "id": 3,
                "mass": "46",
                "pulse": "pulse",
                "respiration": "respiration",
                "respiratory_system": "respiratory system",
                "temperature": "78",
                "urine": "urine"
            },
            "reference": {
                "id": 3,
                "note": "note",
                "patient_id": "patient id",
                "referer_id": "refereer id"
            },
            "start_time": "12:56:00"
        },
        {
            "_links": {
                "anaesthetic": "/api/anaesthetics/4",
                "operative_record": "/api/operative-records/4",
                "patient": "/api/patients/4",
                "post_operative_record": "/api/post-operative-records/4",
                "pre_operative_record": "/api/preoperative-records/4",
                "reference": "/api/referals/4",
                "self": "/api/operations/4",
                "surgical_team": "/api/operations/4/surgical-team",
                "theater": "/api/theaters/32232",
                "vitals": "/api/operations/4/vitals"
            },
            "anaesthetic": {
                "drug_id": null,
                "end_time": "None",
                "id": 4,
                "start_time": "12:56:00",
                "technique_id": null
            },
            "date": null,
            "end_time": "12:56:00",
            "id": 4,
            "operative_record": {
                "abnormal_reactions": "abnornal reactions",
                "blood_pressure": "blood pressusure",
                "color": "colour",
                "id": 4,
                "iv_therapy": "IV Therapy",
                "posture": "posture",
                "pulse_rate": null,
                "reflexes": "relexes",
                "skin": "skin"
            },
            "patient": {
                "address": "Elmore",
                "first_names": "john",
                "gender": "m",
                "id": 4,
                "national_id": "elmc-178",
                "phone": "01234567889",
                "surname": "doe"
            },
            "post_operative_record": {
                "complications": "complications",
                "id": 4,
                "instructions_to_ward": "instructions to ward",
                "iv_therapy": "IV Therapy",
                "sedation": "sedation"
            },
            "pre_operative_record": {
                "blood_group": "blood group",
                "blood_pressure": "blood pressure",
                "blood_urea": null,
                "cadiovascular_system": "cadiovascular system",
                "drug_therapy": "drug therapy",
                "haemoglobin": null,
                "id": 4,
                "mass": "46",
                "pulse": "pulse",
                "respiration": "respiration",
                "respiratory_system": "respiratory system",
                "temperature": "78",
                "urine": "urine"
            },
            "reference": {
                "id": 4,
                "note": "note",
                "patient_id": "patient id",
                "referer_id": "refereer id"
            },
            "start_time": "12:56:00"
        },
        {
            "_links": {
                "anaesthetic": "/api/anaesthetics/5",
                "operative_record": "/api/operative-records/5",
                "patient": "/api/patients/5",
                "post_operative_record": "/api/post-operative-records/5",
                "pre_operative_record": "/api/preoperative-records/5",
                "reference": "/api/referals/5",
                "self": "/api/operations/5",
                "surgical_team": "/api/operations/5/surgical-team",
                "theater": "/api/theaters/32232",
                "vitals": "/api/operations/5/vitals"
            },
            "anaesthetic": {
                "drug_id": null,
                "end_time": "None",
                "id": 5,
                "start_time": "12:56:00",
                "technique_id": null
            },
            "date": null,
            "end_time": "12:56:00",
            "id": 5,
            "operative_record": {
                "abnormal_reactions": "abnornal reactions",
                "blood_pressure": "blood pressusure",
                "color": "colour",
                "id": 5,
                "iv_therapy": "IV Therapy",
                "posture": "posture",
                "pulse_rate": null,
                "reflexes": "relexes",
                "skin": "skin"
            },
            "patient": {
                "address": "Elmore",
                "first_names": "john",
                "gender": "m",
                "id": 5,
                "national_id": "elmc-179",
                "phone": "01234567889",
                "surname": "doe"
            },
            "post_operative_record": {
                "complications": "complications",
                "id": 5,
                "instructions_to_ward": "instructions to ward",
                "iv_therapy": "IV Therapy",
                "sedation": "sedation"
            },
            "pre_operative_record": {
                "blood_group": "blood group",
                "blood_pressure": "blood pressure",
                "blood_urea": null,
                "cadiovascular_system": "cadiovascular system",
                "drug_therapy": "drug therapy",
                "haemoglobin": null,
                "id": 5,
                "mass": "46",
                "pulse": "pulse",
                "respiration": "respiration",
                "respiratory_system": "respiratory system",
                "temperature": "78",
                "urine": "urine"
            },
            "reference": {
                "id": 5,
                "note": "note",
                "patient_id": "patient id",
                "referer_id": "refereer id"
            },
            "start_time": "12:56:00"
        }
    ]
}
